…
# Create a data frame
# The column name should be "text" by default
texts_df <- data.frame(text = texts)

liwc_results_df <- texts_df |> liwc_analysis()

dplyr::tibble(liwc_results_df)
#> # A tibble: 553 × 85
#>    doc_id    WC   Dic `function` pronoun ppron     i    we   you shehe  they
#>    <chr>  <int> <dbl>      <dbl>   <dbl> <dbl> <dbl> <dbl> <dbl> <dbl> <dbl>
#>  1 1          4  50         25      0        0     0     0     0     0     0
#>  2 2          2   0          0      0        0     0     0     0     0     0
#>  3 3          4 100         25      0        0     0     0     0     0     0
#>  4 4         75  76         46.7    5.33     0     0     0     0     0     0
#>  5 5         80  83.8       47.5    3.75     0     0     0     0     0     0
#>  6 6         12  91.7       50      8.33     0     0     0     0     0     0
#>  7 7         10  70         40     10       10     0     0    10     0     0
#>  8 8         62  69.4       45.2    1.61     0     0     0     0     0     0
#>  9 9         15  66.7       46.7    6.67     0     0     0     0     0     0
#> 10 10        22  68.2       50      0        0     0     0     0     0     0
#> # ℹ 543 more rows
#> # ℹ 74 more variables: ipron <dbl>, casepart <dbl>, auxverb <dbl>,
#> #   adverb <dbl>, conj <dbl>, negate <dbl>, verb <dbl>, interrog <dbl>,
#> #   number <dbl>, quant <dbl>, adjverb <dbl>, preadj <dbl>, affect <dbl>,
#> #   posemo <dbl>, negemo <dbl>, anx <dbl>, anger <dbl>, sad <dbl>,
#> #   social <dbl>, family <dbl>, friend <dbl>, female <dbl>, male <dbl>,
#> #   cogproc <dbl>, insight <dbl>, cause <dbl>, discrep <dbl>, tentat <dbl>,
…
